arm,mees,wijs
ram,mees,wijs
arme,mes,wijs
mare,mes,wijs
arme,mess,wij
mare,mess,wij
arme,sijs,wem
mare,sijs,wem
armee,sms,wij
ramee,sms,wij
asem,rem,wijs
asem,rijs,wem
asemmer,wijs
assem,rem,wij
sesam,rem,wij
assem,rij,wem
sesam,rij,wem
eer,mams,wijs
ere,mams,wijs
ree,mams,wijs
eis,ramsj,wem
emir,mes,sjwa
mier,mes,sjwa
riem,mes,sjwa
emmer,ijs,was
emmer,jas,wis
emmer,sas,wij
emmes,ras,wij
emmes,rij,was
ijs,mams,weer
ijs,meers,wam
ijs,resem,wam
ijs,smeer,wam
ijs,mees,warm
ijs,rem,wasem
ijsemmer,was
isme,rem,sjwa
mies,rem,sjwa
jam,meers,wis
jam,resem,wis
jam,smeer,wis
jam,mess,wier
jam,miss,weer
jam,smis,weer
jam,rem,wessi
jam,rem,wisse
jammer,wessi
jammer,wisse
jee,miss,warm
jee,smis,warm
majem,wisser
mam,rees,wijs
mam,rijs,wees
mam,sijs,weer
mams,rees,wij
mams,rij,wees
mams,rijs,wee
mars,mee,wijs
mars,mees,wij
mars,mij,wees
mee,ramsj,wis
mee,sijs,warm
meer,mis,sjwa
meer,sim,sjwa
meer,sijs,wam
meer,wijs,ams
meers,mij,was
resem,mij,was
smeer,mij,was
meers,wij,ams
resem,wij,ams
smeer,wij,ams
mees,mij,wars
mees,rijm,was
mees,rijs,wam
mem,reis,sjwa
mem,sier,sjwa
mem,sijs,ware
mem,wasserij
mes,ramsj,wei
mes,ramsj,wie
mes,rij,wasem
mess,mij,ware
mis,ramsj,wee
sim,ramsj,wee
ramsj,weimes
rijm,wees,ams
sjammes,wier
